test_run_dir/Processor_should_pass/Processor.vcd
$date
2024-05-26T04:59+0000
$end
$version
0.2
$end
$comment

$end
$timescale 1ns  $end
$scope module Processor $end
 $var wire 8 # cReg $end
 $var wire 1 $ incSig $end
 $var wire 1 ) finishedReg $end
 $var wire 1 0 subSig $end
 $var wire 1 1 io_finished $end
 $var wire 8 3 mdr $end
 $var wire 1 4 dataEn $end
 $var wire 1 5 modSig $end
 $var wire 1 6 resultEn $end
 $var wire 8 7 instructionPointerReg $end
 $var wire 8 8 instruction_instr_operands_1 $end
 $var wire 1 : mulSig $end
 $var wire 8 ; instruction_instr_operands_0 $end
 $var wire 1 < zeroFlag $end
 $var wire 1 = op2Load $end
 $var wire 1 > addSig $end
 $var wire 1 B ram $end
 $var wire 8 C instruction_instr_opcode $end
 $var wire 8 D aReg $end
 $var wire 8 E instruction_opcode $end
 $var wire 1 J op2En $end
 $var wire 1 K decSig $end
 $var wire 1 N alu $end
 $var wire 1 O clock $end
 $var wire 1 P divSig $end
 $var wire 8 R instruction_operands_0 $end
 $var wire 3 S tStateCount_value $end
 $var wire 8 T instruction_operands_1 $end
 $var wire 2 U operandCount $end
 $var wire 1 W reset $end
 $var wire 1 Y writeEn $end
 $var wire 8 [ stackPointerReg $end
 $var wire 3 \ currentState $end
 $var wire 2 _ bytesToRead $end
 $var wire 8 ` bReg $end
 $var wire 1 c op1En $end
 $var wire 8 d dataRegister $end
 $var wire 8 g bus $end
 $var wire 1 j op1Load $end
  $scope module alu $end
   $var wire 1 & io_addSig $end
   $var wire 1 ( zeroFlagReg $end
   $var wire 8 * op2Reg $end
   $var wire 8 . resultReg $end
   $var wire 8 ? io_op1In $end
   $var wire 1 @ io_op1Load $end
   $var wire 1 A io_incSig $end
   $var wire 1 F io_op2Load $end
   $var wire 1 G clock $end
   $var wire 1 L io_divSig $end
   $var wire 8 V io_op2In $end
   $var wire 8 X io_resultOut $end
   $var wire 1 Z io_zeroFlag $end
   $var wire 1 ^ io_modSig $end
   $var wire 1 b io_mulSig $end
   $var wire 1 m reset $end
   $var wire 1 n io_subSig $end
   $var wire 8 o op1Reg $end
   $var wire 1 p io_decSig $end
  $upscope $end
  $scope module ram $end
   $var wire 8 ' mem $end
   $var wire 8 2 mem_io_dataOut_MPORT_addr_pipe_0 $end
   $var wire 8 9 io_addrIn $end
   $var wire 1 M mem_io_dataOut_MPORT_en_pipe_0 $end
   $var wire 8 Q io_dataIn $end
   $var wire 8 f io_dataOut $end
   $var wire 1 h io_writeEn $end
   $var wire 1 k clock $end
    $scope module mem $end
     $var wire 8 e MPORT $end
      $scope module io_dataOut_MPORT $end
       $var wire 8 ! data $end
       $var wire 1 + en $end
       $var wire 8 / addr $end
       $var wire 1 l clk $end
      $upscope $end
      $scope module MPORT $end
       $var wire 8 " data $end
       $var wire 8 % pipeline_addr_0 $end
       $var wire 1 , valid $end
       $var wire 8 - pipeline_data_0 $end
       $var wire 1 H mask $end
       $var wire 1 I en $end
       $var wire 1 ] pipeline_valid_0 $end
       $var wire 8 a addr $end
       $var wire 1 i clk $end
      $upscope $end
    $upscope $end
  $upscope $end
$upscope $end
$enddefinitions $end
$dumpvars
00
01
04
b00000000 g
05
b00000000 f
06
0:
b00000000 e
b00000000 d
0<
0=
0>
b00000000 a
b00000000 `
0@
0A
0B
0F
0G
0I
0J
0K
0L
b00000000 o
0M
0N
0O
0P
0W
b00000000 C
0Y
0Z
b00000000 E
b00000000 D
b00000000 ?
0]
0^
b00000000 [
0b
0c
b000 S
b00000000 V
1H
b00000000 X
0h
b00010000 '
0i
b00000000 R
0j
0k
b00000000 T
0l
0m
0n
b00000000 Q
b000 \
0p
b00000000 *
b00000000 -
b00000000 #
b00000000 "
b00000000 %
b00000000 !
b00000000 ;
b00000000 7
b00000000 9
b00000000 8
b00000000 3
b00000000 2
b00 _
b00000000 /
b00000000 .
b00 U
0$
0&
0(
0)
0+
0,
$end
#0
b00010000 !
b00010000 f
1W
1m
#1
1G
b00000001 X
1i
1+
1k
1l
1M
b00000001 .
1O
#6
0G
0W
0i
0k
0l
0m
0O
#11
b00010000 a
1G
b00010000 g
1(
1i
1k
1l
1O
b001 S
14
b00010000 V
b00010000 9
1Z
1<
b00010000 ?
#16
0G
0i
0k
0l
0O
#21
b00000010 !
b00010000 %
b00000010 f
1G
1i
1k
1l
b00010000 /
1O
b00010000 2
b000 S
04
b00010000 7
b001 \
#26
0G
0i
0k
0l
0O
#31
b00000010 a
1G
b00000010 g
1i
1k
1l
1O
b001 S
14
b00000010 V
b00000010 9
b00000010 ?
#36
0G
0i
0k
0l
0O
#41
b01101001 !
b00000000 a
b00000010 d
b00000010 %
b01101001 f
1G
b00000000 g
1i
1k
1l
b00000010 /
1O
b00000010 2
b000 S
04
b00000000 V
b00000000 9
b010 \
b00000000 ?
#46
0G
0i
0k
0l
0O
#51
b00010000 !
b00000000 %
b00000010 E
b00010000 f
1G
1i
1k
1l
b00000000 /
1O
b00000000 2
b011 \
b10 _
#56
0G
0i
0k
0l
0O
#61
b00010001 a
1G
b00010001 g
1i
1k
1l
1O
b00010001 V
b00010001 7
b00010001 9
b001 \
b00010001 ?
#66
0G
0i
0k
0l
0O
#71
b00001110 !
b00001110 a
b00010001 %
b00001110 f
1G
b00001110 g
1i
1k
1l
b00010001 /
1O
b00010001 2
b001 S
14
b00001110 V
b00001110 9
b00001110 ?
#76
0G
0i
0k
0l
0O
#81
b00100001 !
b00000000 a
b00001110 d
b00001110 %
b00100001 f
1G
b00000000 g
1i
1k
1l
b00001110 /
1O
b00001110 2
b000 S
04
b00000000 V
b00000000 9
b100 \
b00000000 ?
#86
0G
0i
0k
0l
0O
#91
b00010000 !
b00000000 %
b00010000 f
1G
1i
1k
1l
b00000000 /
1O
b00000000 2
b00001110 R
b01 U
b011 \
b01 _
#96
0G
0i
0k
0l
0O
#101
b00010010 a
1G
b00010010 g
1i
1k
1l
1O
b00010010 V
b00010010 7
b00010010 9
b001 \
b00010010 ?
#106
0G
0i
0k
0l
0O
#111
b00000000 !
b00000000 a
b00010010 %
b00000000 f
1G
b00000000 g
1i
1k
1l
b00010010 /
1O
b00010010 2
b001 S
14
b00000000 V
b00000000 9
b00000000 ?
#116
0G
0i
0k
0l
0O
#121
b00010000 !
b00000000 d
b00000000 %
b00010000 f
1G
1i
1k
1l
b00000000 /
1O
b00000000 2
b000 S
04
b100 \
#126
0G
0i
0k
0l
0O
#131
b10 U
1G
1i
1k
b011 \
1l
1O
b00 _
#136
0G
0i
0k
0l
0O
#141
b00001110 a
1G
b00001110 g
1i
1k
1l
1O
b00001110 V
b00010011 7
b00001110 9
b101 \
b00001110 ?
#146
0G
0i
0k
0l
0O
#151
b00100001 !
b00100001 a
b00001110 %
b00100001 f
1G
b00100001 g
1i
1k
1l
b00001110 /
1O
b00001110 2
b001 S
14
b00100001 V
b00100001 9
b00100001 ?
#156
0G
0i
0k
0l
0O
#161
b00000000 !
b00010011 a
b00100001 D
b00100001 %
b00000000 f
1G
b00010011 g
1i
1k
1l
b00100001 /
1O
b00100001 2
b000 S
04
b00010011 V
b00010011 9
b001 \
b00010011 ?
#166
0G
0i
0k
0l
0O
#171
b00000011 !
b00000011 a
b00010011 %
b00000011 f
1G
b00000011 g
1i
1k
1l
b00010011 /
1O
b00010011 2
b001 S
14
b00000011 V
b00000011 9
b00000011 ?
#176
0G
0i
0k
0l
0O
#181
b00100001 !
b00000000 a
b00000011 d
b00000011 %
b00100001 f
1G
b00000000 g
1i
1k
1l
b00000011 /
1O
b00000011 2
b000 S
04
b00000000 V
b00000000 9
b010 \
b00000000 ?
#186
0G
0i
0k
0l
0O
#191
b00010000 !
b00000000 %
b00000011 E
b00010000 f
1G
1i
1k
1l
b00000000 /
1O
b00000000 2
b00 U
b011 \
b10 _
#196
0G
0i
0k
0l
0O
#201
b00010100 a
1G
b00010100 g
1i
1k
1l
1O
b00010100 V
b00010100 7
b00010100 9
b001 \
b00010100 ?
#206
0G
0i
0k
0l
0O
#211
b00000001 !
b00000001 a
b00010100 %
b00000001 f
1G
b00000001 g
1i
1k
1l
b00010100 /
1O
b00010100 2
b001 S
14
b00000001 V
b00000001 9
b00000001 ?
#216
0G
0i
0k
0l
0O
#221
b01101000 !
b00000000 a
b00000001 d
b00000001 %
b01101000 f
1G
b00000000 g
1i
1k
1l
b00000001 /
1O
b00000001 2
b000 S
04
b00000000 V
b00000000 9
b100 \
b00000000 ?
#226
0G
0i
0k
0l
0O
#231
b00010000 !
b00000000 %
b00010000 f
1G
1i
1k
1l
b00000000 /
1O
b00000000 2
b00000001 R
b01 U
b011 \
b01 _
#236
0G
0i
0k
0l
0O
#241
b00010101 a
1G
b00010101 g
1i
1k
1l
1O
b00010101 V
b00010101 7
b00010101 9
b001 \
b00010101 ?
#246
0G
0i
0k
0l
0O
#251
b00000001 !
b00000001 a
b00010101 %
b00000001 f
1G
b00000001 g
1i
1k
1l
b00010101 /
1O
b00010101 2
b001 S
14
b00000001 V
b00000001 9
b00000001 ?
#256
0G
0i
0k
0l
0O
#261
b01101000 !
b00000000 a
b00000001 %
b01101000 f
1G
b00000000 g
1i
1k
1l
b00000001 /
1O
b00000001 2
b000 S
04
b00000000 V
b00000000 9
b100 \
b00000000 ?
#266
0G
0i
0k
0l
0O
#271
b00010000 !
b00000000 %
b00010000 f
1G
1i
1k
1l
b00000000 /
1O
b00000000 2
b00000001 T
b10 U
b011 \
b00 _
#276
0G
0i
0k
0l
0O
#281
b00010110 7
1G
1i
1k
b101 \
1l
1O
#286
0G
0i
0k
0l
0O
#291
b00000001 `
b00010110 a
1G
b00010110 g
1i
1k
1l
1O
b00010110 V
b00010110 9
b001 \
b00010110 ?
#296
0G
0i
0k
0l
0O
#301
b00000100 !
b00000100 a
b00010110 %
b00000100 f
1G
b00000100 g
1i
1k
1l
b00010110 /
1O
b00010110 2
b001 S
14
b00000100 V
b00000100 9
b00000100 ?
#306
0G
0i
0k
0l
0O
#311
b00100000 !
b00000000 a
b00000100 d
b00000100 %
b00100000 f
1G
b00000000 g
1i
1k
1l
b00000100 /
1O
b00000100 2
b000 S
04
b00000000 V
b00000000 9
b010 \
b00000000 ?
#316
0G
0i
0k
0l
0O
#321
b00010000 !
b00000000 %
b00000100 E
b00010000 f
1G
1i
1k
1l
b00000000 /
1O
b00000000 2
b00 U
b011 \
b10 _
#326
0G
0i
0k
0l
0O
#331
b00010111 a
1G
b00010111 g
1i
1k
1l
1O
b00010111 V
b00010111 7
b00010111 9
b001 \
b00010111 ?
#336
0G
0i
0k
0l
0O
#341
b00000001 !
b00000001 a
b00010111 %
b00000001 f
1G
b00000001 g
1i
1k
1l
b00010111 /
1O
b00010111 2
b001 S
14
b00000001 V
b00000001 9
b00000001 ?
#346
0G
0i
0k
0l
0O
#351
b01101000 !
b00000000 a
b00000001 d
b00000001 %
b01101000 f
1G
b00000000 g
1i
1k
1l
b00000001 /
1O
b00000001 2
b000 S
04
b00000000 V
b00000000 9
b100 \
b00000000 ?
#356
0G
0i
0k
0l
0O
#361
b00010000 !
b00000000 %
b00010000 f
1G
1i
1k
1l
b00000000 /
1O
b00000000 2
b01 U
b011 \
b01 _
#366
0G
0i
0k
0l
0O
#371
b00011000 a
1G
b00011000 g
1i
1k
1l
1O
b00011000 V
b00011000 7
b00011000 9
b001 \
b00011000 ?
#376
0G
0i
0k
0l
0O
#381
b00000010 !
b00000010 a
b00011000 %
b00000010 f
1G
b00000010 g
1i
1k
1l
b00011000 /
1O
b00011000 2
b001 S
14
b00000010 V
b00000010 9
b00000010 ?
#386
0G
0i
0k
0l
0O
#391
b01101001 !
b00000000 a
b00000010 d
b00000010 %
b01101001 f
1G
b00000000 g
1i
1k
1l
b00000010 /
1O
b00000010 2
b000 S
04
b00000000 V
b00000000 9
b100 \
b00000000 ?
#396
0G
0i
0k
0l
0O
#401
b00010000 !
b00000000 %
b00010000 f
1G
1i
1k
1l
b00000000 /
1O
b00000000 2
b00000010 T
b10 U
b011 \
b00 _
#406
0G
0i
0k
0l
0O
#411
b00000001 a
1G
b00000001 g
1i
1k
1l
1O
b00000001 V
b00011001 7
b00000001 9
b101 \
b00000001 ?
#416
0G
0i
0k
0l
0O
#421
b01101000 !
b01101000 a
b00000001 %
b01101000 f
1G
b01101000 g
1i
1k
1l
b00000001 /
1O
b00000001 2
b001 S
14
b01101000 V
b01101000 9
b01101000 ?
#426
0G
0i
0k
0l
0O
#431
b00010101 !
b00011001 a
b01101000 #
b01101000 %
b00010101 f
1G
b00011001 g
1i
1k
1l
b01101000 /
1O
b01101000 2
b000 S
04
b00011001 V
b00011001 9
b001 \
b00011001 ?
#436
0G
0i
0k
0l
0O
#441
b00100001 !
b00100001 a
b00011001 %
b00100001 f
1G
b00100001 g
1i
1k
1l
b00011001 /
1O
b00011001 2
b001 S
14
b00100001 V
b00100001 9
b00100001 ?
#446
0G
0i
0k
0l
0O
#451
b00000000 !
b00000000 a
b00100001 d
b00100001 %
b00000000 f
1G
b00000000 g
1i
1k
1l
b00100001 /
1O
b00100001 2
b000 S
04
b00000000 V
b00000000 9
b010 \
b00000000 ?
#456
0G
0i
0k
0l
0O
#461
b00010000 !
b00000000 %
b00100001 E
b00010000 f
1G
1i
1k
1l
b00000000 /
1O
b00000000 2
b00 U
b011 \
b10 _
#466
0G
0i
0k
0l
0O
#471
b00011010 a
1G
b00011010 g
1i
1k
1l
1O
b00011010 V
b00011010 7
b00011010 9
b001 \
b00011010 ?
#476
0G
0i
0k
0l
0O
#481
b00000010 !
b00000010 a
b00011010 %
b00000010 f
1G
b00000010 g
1i
1k
1l
b00011010 /
1O
b00011010 2
b001 S
14
b00000010 V
b00000010 9
b00000010 ?
#486
0G
0i
0k
0l
0O
#491
b01101001 !
b00000000 a
b00000010 d
b00000010 %
b01101001 f
1G
b00000000 g
1i
1k
1l
b00000010 /
1O
b00000010 2
b000 S
04
b00000000 V
b00000000 9
b100 \
b00000000 ?
#496
0G
0i
0k
0l
0O
#501
b00010000 !
b00000000 %
b00010000 f
1G
1i
1k
1l
b00000000 /
1O
b00000000 2
b00000010 R
b01 U
b011 \
b01 _
#506
0G
0i
0k
0l
0O
#511
b00011011 a
1G
b00011011 g
1i
1k
1l
1O
b00011011 V
b00011011 7
b00011011 9
b001 \
b00011011 ?
#516
0G
0i
0k
0l
0O
#521
b00000000 !
b00000000 a
b00011011 %
b00000000 f
1G
b00000000 g
1i
1k
1l
b00011011 /
1O
b00011011 2
b001 S
14
b00000000 V
b00000000 9
b00000000 ?
#526
0G
0i
0k
0l
0O
#531
b00010000 !
b00000000 d
b00000000 %
b00010000 f
1G
1i
1k
1l
b00000000 /
1O
b00000000 2
b000 S
04
b100 \
#536
0G
0i
0k
0l
0O
#541
b00000000 T
b10 U
1G
1i
1k
b011 \
1l
1O
b00 _
#546
0G
0i
0k
0l
0O
#551
1@
b01101000 a
1G
b01101000 g
1i
1j
1k
1l
1O
b01101000 V
b00011100 7
b01101000 9
b101 \
b01101000 ?
#556
0G
0i
0k
0l
0O
#561
0@
b00010101 !
b00000000 a
b01101000 %
1F
b00010101 f
1G
b00000000 g
1i
0j
1k
1l
b01101000 /
1O
b01101000 o
b01101000 2
b001 S
b00000000 V
b00000000 9
1=
b00000000 ?
#566
0G
0i
0k
0l
0O
#571
b00010000 !
b00011100 a
b00000000 %
0F
b00010000 f
1G
b00011100 g
0(
1i
1k
1l
b00000000 /
1O
b00000000 2
b000 S
b00011100 V
b00011100 9
0Z
0<
b001 \
0=
b00011100 ?
#576
0G
0i
0k
0l
0O
#581
b00001101 !
b00001101 a
b00011100 %
b00001101 f
1G
b00001101 g
1i
1k
1l
b00011100 /
1O
b00011100 2
b001 S
14
b00001101 V
b00001101 9
b00001101 ?
#586
0G
0i
0k
0l
0O
#591
b00000000 !
b00000000 a
b00001101 d
b00001101 %
b00000000 f
1G
b00000000 g
1i
1k
1l
b00001101 /
1O
b00001101 2
b000 S
04
b00000000 V
b00000000 9
b010 \
b00000000 ?
#596
0G
0i
0k
0l
0O
#601
b00010000 !
b00000000 %
b00001101 E
b00010000 f
1G
1i
1k
1l
b00000000 /
1O
b00000000 2
b00 U
b011 \
b01 _
#606
0G
0i
0k
0l
0O
#611
b00011101 a
1G
b00011101 g
1i
1k
1l
1O
b00011101 V
b00011101 7
b00011101 9
b001 \
b00011101 ?
#616
0G
0i
0k
0l
0O
#621
b00101100 !
b00101100 a
b00011101 %
b00101100 f
1G
b00101100 g
1i
1k
1l
b00011101 /
1O
b00011101 2
b001 S
14
b00101100 V
b00101100 9
b00101100 ?
#626
0G
0i
0k
0l
0O
#631
b00000011 !
b00000000 a
b00101100 d
b00101100 %
b00000011 f
1G
b00000000 g
1i
1k
1l
b00101100 /
1O
b00101100 2
b000 S
04
b00000000 V
b00000000 9
b100 \
b00000000 ?
#636
0G
0i
0k
0l
0O
#641
b00010000 !
b00000000 %
b00010000 f
1G
1i
1k
1l
b00000000 /
1O
b00000000 2
b00101100 R
b01 U
b011 \
b00 _
#646
0G
0i
0k
0l
0O
#651
b00011110 7
1G
1i
1k
b101 \
1l
1O
#656
0G
0i
0k
0l
0O
#661
b00011110 a
b00011110 V
1G
b00011110 g
b00011110 9
1i
1k
b001 \
1l
b00011110 ?
1O
#666
0G
0i
0k
0l
0O
#671
b00000110 !
b00000110 a
b00011110 %
b00000110 f
1G
b00000110 g
1i
1k
1l
b00011110 /
1O
b00011110 2
b001 S
14
b00000110 V
b00000110 9
b00000110 ?
#676
0G
0i
0k
0l
0O
#681
b00100000 !
b00000000 a
b00000110 d
b00000110 %
b00100000 f
1G
b00000000 g
1i
1k
1l
b00000110 /
1O
b00000110 2
b000 S
04
b00000000 V
b00000000 9
b010 \
b00000000 ?
#686
0G
0i
0k
0l
0O
#691
b00010000 !
b00000000 %
b00000110 E
b00010000 f
1G
1i
1k
1l
b00000000 /
1O
b00000000 2
b00 U
b011 \
b01 _
#696
0G
0i
0k
0l
0O
#701
b00011111 a
1G
b00011111 g
1i
1k
1l
1O
b00011111 V
b00011111 7
b00011111 9
b001 \
b00011111 ?
#706
0G
0i
0k
0l
0O
#711
b00000001 !
b00000001 a
b00011111 %
b00000001 f
1G
b00000001 g
1i
1k
1l
b00011111 /
1O
b00011111 2
b001 S
14
b00000001 V
b00000001 9
b00000001 ?
#716
0G
0i
0k
0l
0O
#721
b01101000 !
b00000000 a
b00000001 d
b00000001 %
b01101000 f
1G
b00000000 g
1i
1k
1l
b00000001 /
1O
b00000001 2
b000 S
04
b00000000 V
b00000000 9
b100 \
b00000000 ?
#726
0G
0i
0k
0l
0O
#731
b00010000 !
b00000000 %
b00010000 f
1G
1i
1k
1l
b00000000 /
1O
b00000000 2
b00000001 R
b01 U
b011 \
b00 _
#736
0G
0i
0k
0l
0O
#741
1@
b00000001 a
1G
b00000001 g
1i
1j
1k
1l
1O
b00000001 V
b00100000 7
b00000001 9
b101 \
b00000001 ?
#746
0G
0i
0k
0l
0O
#751
0@
b01101000 !
1A
b00000000 a
1$
b00000001 %
b01101000 f
1G
b00000000 g
1i
0j
1k
1l
b00000001 /
1O
b00000001 o
b00000001 2
b001 S
b00000000 V
b00000000 9
b00000000 ?
#756
0G
0i
0k
0l
0O
#761
b00010000 !
0A
b00000010 a
0$
b00000000 %
b00010000 f
1G
b00000010 g
1i
1k
1l
b00000010 .
b00000000 /
1O
b00000000 2
b010 S
16
b00000010 V
b00000010 X
b00000010 9
b00000010 ?
#766
0G
0i
0k
0l
0O
#771
b00000010 `
b01101001 !
b00100000 a
b00000010 %
b01101001 f
1G
b00100000 g
1i
1k
1l
b00000010 /
1O
b00000010 2
b000 S
06
b00100000 V
b00100000 9
b001 \
b00100000 ?
#776
0G
0i
0k
0l
0O
#781
b00001111 !
b00001111 a
b00100000 %
b00001111 f
1G
b00001111 g
1i
1k
1l
b00100000 /
1O
b00100000 2
b001 S
14
b00001111 V
b00001111 9
b00001111 ?
#786
0G
0i
0k
0l
0O
#791
b00000000 !
b00000000 a
b00001111 d
b00001111 %
b00000000 f
1G
b00000000 g
1i
1k
1l
b00001111 /
1O
b00001111 2
b000 S
04
b00000000 V
b00000000 9
b010 \
b00000000 ?
#796
0G
0i
0k
0l
0O
#801
b00010000 !
b00000000 %
b00001111 E
b00010000 f
1G
1i
1k
1l
b00000000 /
1O
b00000000 2
b00 U
b011 \
b10 _
#806
0G
0i
0k
0l
0O
#811
b00100001 a
1G
b00100001 g
1i
1k
1l
1O
b00100001 V
b00100001 7
b00100001 9
b001 \
b00100001 ?
#816
0G
0i
0k
0l
0O
#821
b00000000 !
b00000000 a
b00100001 %
b00000000 f
1G
b00000000 g
1i
1k
1l
b00100001 /
1O
b00100001 2
b001 S
14
b00000000 V
b00000000 9
b00000000 ?
#826
0G
0i
0k
0l
0O
#831
b00010000 !
b00000000 d
b00000000 %
b00010000 f
1G
1i
1k
1l
b00000000 /
1O
b00000000 2
b000 S
04
b100 \
#836
0G
0i
0k
0l
0O
#841
b00000000 R
b01 U
1G
1i
1k
b011 \
1l
1O
b01 _
#846
0G
0i
0k
0l
0O
#851
b00100010 a
1G
b00100010 g
1i
1k
1l
1O
b00100010 V
b00100010 7
b00100010 9
b001 \
b00100010 ?
#856
0G
0i
0k
0l
0O
#861
b00000010 !
b00000010 a
b00100010 %
b00000010 f
1G
b00000010 g
1i
1k
1l
b00100010 /
1O
b00100010 2
b001 S
14
b00000010 V
b00000010 9
b00000010 ?
#866
0G
0i
0k
0l
0O
#871
b01101001 !
b00000000 a
b00000010 d
b00000010 %
b01101001 f
1G
b00000000 g
1i
1k
1l
b00000010 /
1O
b00000010 2
b000 S
04
b00000000 V
b00000000 9
b100 \
b00000000 ?
#876
0G
0i
0k
0l
0O
#881
b00010000 !
b00000000 %
b00010000 f
1G
1i
1k
1l
b00000000 /
1O
b00000000 2
b00000010 T
b10 U
b011 \
b00 _
#886
0G
0i
0k
0l
0O
#891
1@
b00100001 a
1G
b00100001 g
1i
1j
1k
1l
1O
b00100001 V
b00100011 7
b00100001 9
b101 \
b00100001 ?
#896
0G
0i
0k
0l
0O
#901
0@
b00000000 !
b01101000 a
b00100001 %
1F
b00000000 f
1G
b01101000 g
1i
0j
1k
1l
b00100001 /
1O
b00100001 o
b00100001 2
b001 S
b01101000 V
b01101000 9
1=
b01101000 ?
#906
0G
0i
0k
0l
0O
#911
b00010101 !
b00100011 a
b01101000 %
0F
b00010101 f
1G
b00100011 g
1i
b01101000 *
1k
1l
b01101000 /
1O
b01101000 2
b000 S
b00100011 V
b00100011 9
b001 \
0=
b00100011 ?
#916
0G
0i
0k
0l
0O
#921
b00001110 !
b00001110 a
b00100011 %
b00001110 f
1G
b00001110 g
1i
1k
1l
b00100011 /
1O
b00100011 2
b001 S
14
b00001110 V
b00001110 9
b00001110 ?
#926
0G
0i
0k
0l
0O
#931
b00100001 !
b00000000 a
b00001110 d
b00001110 %
b00100001 f
1G
b00000000 g
1i
1k
1l
b00001110 /
1O
b00001110 2
b000 S
04
b00000000 V
b00000000 9
b010 \
b00000000 ?
#936
0G
0i
0k
0l
0O
#941
b00010000 !
b00000000 %
b00001110 E
b00010000 f
1G
1i
1k
1l
b00000000 /
1O
b00000000 2
b00 U
b011 \
b01 _
#946
0G
0i
0k
0l
0O
#951
b00100100 a
1G
b00100100 g
1i
1k
1l
1O
b00100100 V
b00100100 7
b00100100 9
b001 \
b00100100 ?
#956
0G
0i
0k
0l
0O
#961
b00010110 !
b00010110 a
b00100100 %
b00010110 f
1G
b00010110 g
1i
1k
1l
b00100100 /
1O
b00100100 2
b001 S
14
b00010110 V
b00010110 9
b00010110 ?
#966
0G
0i
0k
0l
0O
#971
b00000100 !
b00000000 a
b00010110 d
b00010110 %
b00000100 f
1G
b00000000 g
1i
1k
1l
b00010110 /
1O
b00010110 2
b000 S
04
b00000000 V
b00000000 9
b100 \
b00000000 ?
#976
0G
0i
0k
0l
0O
#981
b00010000 !
b00000000 %
b00010000 f
1G
1i
1k
1l
b00000000 /
1O
b00000000 2
b00010110 R
b01 U
b011 \
b00 _
#986
0G
0i
0k
0l
0O
#991
b00010110 a
1c
1G
b00010110 g
1i
1k
1l
1O
b00010110 V
b00100101 7
b00010110 9
b101 \
b00010110 ?
#996
0G
0i
0k
0l
0O
#1001
b00000100 !
0c
b00010110 %
b00000100 f
1G
1i
1k
1l
b00010110 /
1O
b00010110 2
b00010110 7
b001 \
#1006
0G
0i
0k
0l
0O
#1011
b00000100 a
1G
b00000100 g
1i
1k
1l
1O
b001 S
14
b00000100 V
b00000100 9
b00000100 ?
#1016
0G
0i
0k
0l
0O
#1021
b00100000 !
b00000000 a
b00000100 d
b00000100 %
b00100000 f
1G
b00000000 g
1i
1k
1l
b00000100 /
1O
b00000100 2
b000 S
04
b00000000 V
b00000000 9
b010 \
b00000000 ?
#1026
0G
0i
0k
0l
0O
#1031
b00010000 !
b00000000 %
b00000100 E
b00010000 f
1G
1i
1k
1l
b00000000 /
1O
b00000000 2
b00 U
b011 \
b10 _
#1036
0G
0i
0k
0l
0O
#1041
b00010111 a
1G
b00010111 g
1i
1k
1l
1O
b00010111 V
b00010111 7
b00010111 9
b001 \
b00010111 ?
#1046
0G
0i
0k
0l
0O
#1051
b00000001 !
b00000001 a
b00010111 %
b00000001 f
1G
b00000001 g
1i
1k
1l
b00010111 /
1O
b00010111 2
b001 S
14
b00000001 V
b00000001 9
b00000001 ?
#1056
0G
0i
0k
0l
0O
#1061
b01101000 !
b00000000 a
b00000001 d
b00000001 %
b01101000 f
1G
b00000000 g
1i
1k
1l
b00000001 /
1O
b00000001 2
b000 S
04
b00000000 V
b00000000 9
b100 \
b00000000 ?
#1066
0G
0i
0k
0l
0O
#1071
b00010000 !
b00000000 %
b00010000 f
1G
1i
1k
1l
b00000000 /
1O
b00000000 2
b00000001 R
b01 U
b011 \
b01 _
#1076
0G
0i
0k
0l
0O
#1081
b00011000 a
1G
b00011000 g
1i
1k
1l
1O
b00011000 V
b00011000 7
b00011000 9
b001 \
b00011000 ?
#1086
0G
0i
0k
0l
0O
#1091
b00000010 !
b00000010 a
b00011000 %
b00000010 f
1G
b00000010 g
1i
1k
1l
b00011000 /
1O
b00011000 2
b001 S
14
b00000010 V
b00000010 9
b00000010 ?
#1096
0G
0i
0k
0l
0O
#1101
b01101001 !
b00000000 a
b00000010 d
b00000010 %
b01101001 f
1G
b00000000 g
1i
1k
1l
b00000010 /
1O
b00000010 2
b000 S
04
b00000000 V
b00000000 9
b100 \
b00000000 ?
#1106
0G
0i
0k
0l
0O
#1111
b00010000 !
b00000000 %
b00010000 f
1G
1i
1k
1l
b00000000 /
1O
b00000000 2
b10 U
b011 \
b00 _
#1116
0G
0i
0k
0l
0O
#1121
b00000010 a
1G
b00000010 g
1i
1k
1l
1O
b00000010 V
b00011001 7
b00000010 9
b101 \
b00000010 ?
#1126
0G
0i
0k
0l
0O
#1131
b01101001 !
b01101001 a
b00000010 %
b01101001 f
1G
b01101001 g
1i
1k
1l
b00000010 /
1O
b00000010 2
b001 S
14
b01101001 V
b01101001 9
b01101001 ?
#1136
0G
0i
0k
0l
0O
#1141
b00010101 !
b00011001 a
b01101001 #
b01101001 %
b00010101 f
1G
b00011001 g
1i
1k
1l
b01101001 /
1O
b01101001 2
b000 S
04
b00011001 V
b00011001 9
b001 \
b00011001 ?
#1146
0G
0i
0k
0l
0O
#1151
b00100001 !
b00100001 a
b00011001 %
b00100001 f
1G
b00100001 g
1i
1k
1l
b00011001 /
1O
b00011001 2
b001 S
14
b00100001 V
b00100001 9
b00100001 ?
#1156
0G
0i
0k
0l
0O
#1161
b00000000 !
b00000000 a
b00100001 d
b00100001 %
b00000000 f
1G
b00000000 g
1i
1k
1l
b00100001 /
1O
b00100001 2
b000 S
04
b00000000 V
b00000000 9
b010 \
b00000000 ?
#1166
0G
0i
0k
0l
0O
#1171
b00010000 !
b00000000 %
b00100001 E
b00010000 f
1G
1i
1k
1l
b00000000 /
1O
b00000000 2
b00 U
b011 \
b10 _
#1176
0G
0i
0k
0l
0O
#1181
b00011010 a
1G
b00011010 g
1i
1k
1l
1O
b00011010 V
b00011010 7
b00011010 9
b001 \
b00011010 ?
#1186
0G
0i
0k
0l
0O
#1191
b00000010 !
b00000010 a
b00011010 %
b00000010 f
1G
b00000010 g
1i
1k
1l
b00011010 /
1O
b00011010 2
b001 S
14
b00000010 V
b00000010 9
b00000010 ?
#1196
0G
0i
0k
0l
0O
#1201
b01101001 !
b00000000 a
b00000010 d
b00000010 %
b01101001 f
1G
b00000000 g
1i
1k
1l
b00000010 /
1O
b00000010 2
b000 S
04
b00000000 V
b00000000 9
b100 \
b00000000 ?
#1206
0G
0i
0k
0l
0O
#1211
b00010000 !
b00000000 %
b00010000 f
1G
1i
1k
1l
b00000000 /
1O
b00000000 2
b00000010 R
b01 U
b011 \
b01 _
#1216
0G
0i
0k
0l
0O
#1221
b00011011 a
1G
b00011011 g
1i
1k
1l
1O
b00011011 V
b00011011 7
b00011011 9
b001 \
b00011011 ?
#1226
0G
0i
0k
0l
0O
#1231
b00000000 !
b00000000 a
b00011011 %
b00000000 f
1G
b00000000 g
1i
1k
1l
b00011011 /
1O
b00011011 2
b001 S
14
b00000000 V
b00000000 9
b00000000 ?
#1236
0G
0i
0k
0l
0O
#1241
b00010000 !
b00000000 d
b00000000 %
b00010000 f
1G
1i
1k
1l
b00000000 /
1O
b00000000 2
b000 S
04
b100 \
#1246
0G
0i
0k
0l
0O
#1251
b00000000 T
b10 U
1G
1i
1k
b011 \
1l
1O
b00 _
#1256
0G
0i
0k
0l
0O
#1261
1@
b01101001 a
1G
b01101001 g
1i
1j
1k
1l
1O
b01101001 V
b00011100 7
b01101001 9
b101 \
b01101001 ?
